Silicon.sim/sim_1/behav/xsim/simulate.log
Time resolution is 1 ps

========== TESTBENCH START ==========
Normal operation begins (NORTH_GREEN)
Normal: N=01 E=00 S=00 W=00 | Timer=0
Normal: N=10 E=00 S=00 W=00 | Timer=20
Normal: N=10 E=00 S=00 W=00 | Timer=19
Normal: N=10 E=00 S=00 W=00 | Timer=18
Normal: N=10 E=00 S=00 W=00 | Timer=17
Normal: N=10 E=00 S=00 W=00 | Timer=16
Normal: N=10 E=00 S=00 W=00 | Timer=15
Normal: N=10 E=00 S=00 W=00 | Timer=14
Normal: N=10 E=00 S=00 W=00 | Timer=13
Normal: N=10 E=00 S=00 W=00 | Timer=12
Normal: N=10 E=00 S=00 W=00 | Timer=11
Normal: N=10 E=00 S=00 W=00 | Timer=10
Normal: N=10 E=00 S=00 W=00 | Timer=9
Normal: N=10 E=00 S=00 W=00 | Timer=8
Normal: N=10 E=00 S=00 W=00 | Timer=7
Normal: N=10 E=00 S=00 W=00 | Timer=6
Normal: N=10 E=00 S=00 W=00 | Timer=5
Normal: N=10 E=00 S=00 W=00 | Timer=4
Normal: N=10 E=00 S=00 W=00 | Timer=3
Normal: N=10 E=00 S=00 W=00 | Timer=2
Normal: N=10 E=00 S=00 W=00 | Timer=1
Normal: N=10 E=00 S=00 W=00 | Timer=0
Normal: N=11 E=11 S=11 W=11 | Timer=5
Normal: N=11 E=11 S=11 W=11 | Timer=4
Normal: N=11 E=11 S=11 W=11 | Timer=3
Normal: N=11 E=11 S=11 W=11 | Timer=2
Normal: N=11 E=11 S=11 W=11 | Timer=1
Normal: N=11 E=11 S=11 W=11 | Timer=0
Normal: N=00 E=01 S=00 W=00 | Timer=85
Normal: N=00 E=01 S=00 W=00 | Timer=84
Normal: N=00 E=01 S=00 W=00 | Timer=83
Normal: N=00 E=01 S=00 W=00 | Timer=82
Normal: N=00 E=01 S=00 W=00 | Timer=81
Normal: N=00 E=01 S=00 W=00 | Timer=80
Normal: N=00 E=01 S=00 W=00 | Timer=79
Normal: N=00 E=01 S=00 W=00 | Timer=78
Normal: N=00 E=01 S=00 W=00 | Timer=77
Normal: N=00 E=01 S=00 W=00 | Timer=76
Normal: N=00 E=01 S=00 W=00 | Timer=75
Normal: N=00 E=01 S=00 W=00 | Timer=74
Normal: N=00 E=01 S=00 W=00 | Timer=73
Normal: N=00 E=01 S=00 W=00 | Timer=72
Normal: N=00 E=01 S=00 W=00 | Timer=71
Normal: N=00 E=01 S=00 W=00 | Timer=70
Normal: N=00 E=01 S=00 W=00 | Timer=69
Normal: N=00 E=01 S=00 W=00 | Timer=68
Normal: N=00 E=01 S=00 W=00 | Timer=67
Normal: N=00 E=01 S=00 W=00 | Timer=66
Normal: N=00 E=01 S=00 W=00 | Timer=65
Normal: N=00 E=01 S=00 W=00 | Timer=64
Normal: N=00 E=01 S=00 W=00 | Timer=63
Normal: N=00 E=01 S=00 W=00 | Timer=62
Normal: N=00 E=01 S=00 W=00 | Timer=61
Normal: N=00 E=01 S=00 W=00 | Timer=60
Normal: N=00 E=01 S=00 W=00 | Timer=59
Normal: N=00 E=01 S=00 W=00 | Timer=58
Normal: N=00 E=01 S=00 W=00 | Timer=57
Normal: N=00 E=01 S=00 W=00 | Timer=56
Normal: N=00 E=01 S=00 W=00 | Timer=55
Normal: N=00 E=01 S=00 W=00 | Timer=54
Normal: N=00 E=01 S=00 W=00 | Timer=53
Normal: N=00 E=01 S=00 W=00 | Timer=52
Normal: N=00 E=01 S=00 W=00 | Timer=51
Normal: N=00 E=01 S=00 W=00 | Timer=50
Normal: N=00 E=01 S=00 W=00 | Timer=49
Normal: N=00 E=01 S=00 W=00 | Timer=48
Normal: N=00 E=01 S=00 W=00 | Timer=47
Normal: N=00 E=01 S=00 W=00 | Timer=46
Normal: N=00 E=01 S=00 W=00 | Timer=45
Normal: N=00 E=01 S=00 W=00 | Timer=44
Normal: N=00 E=01 S=00 W=00 | Timer=43
Normal: N=00 E=01 S=00 W=00 | Timer=42
Normal: N=00 E=01 S=00 W=00 | Timer=41
Normal: N=00 E=01 S=00 W=00 | Timer=40
Normal: N=00 E=01 S=00 W=00 | Timer=39
Normal: N=00 E=01 S=00 W=00 | Timer=38
Normal: N=00 E=01 S=00 W=00 | Timer=37
Normal: N=00 E=01 S=00 W=00 | Timer=36
Normal: N=00 E=01 S=00 W=00 | Timer=35
Normal: N=00 E=01 S=00 W=00 | Timer=34
Normal: N=00 E=01 S=00 W=00 | Timer=33
Normal: N=00 E=01 S=00 W=00 | Timer=32
Normal: N=00 E=01 S=00 W=00 | Timer=31
Normal: N=00 E=01 S=00 W=00 | Timer=30
Normal: N=00 E=01 S=00 W=00 | Timer=29
Normal: N=00 E=01 S=00 W=00 | Timer=28
Normal: N=00 E=01 S=00 W=00 | Timer=27
Normal: N=00 E=01 S=00 W=00 | Timer=26
Normal: N=00 E=01 S=00 W=00 | Timer=25
Normal: N=00 E=01 S=00 W=00 | Timer=24
Normal: N=00 E=01 S=00 W=00 | Timer=23
Normal: N=00 E=01 S=00 W=00 | Timer=22
Normal: N=00 E=01 S=00 W=00 | Timer=21
Normal: N=00 E=01 S=00 W=00 | Timer=20
Normal: N=00 E=01 S=00 W=00 | Timer=19
Normal: N=00 E=01 S=00 W=00 | Timer=18
Normal: N=00 E=01 S=00 W=00 | Timer=17
Normal: N=00 E=01 S=00 W=00 | Timer=16
Normal: N=00 E=01 S=00 W=00 | Timer=15
Normal: N=00 E=01 S=00 W=00 | Timer=14
Normal: N=00 E=01 S=00 W=00 | Timer=13
Normal: N=00 E=01 S=00 W=00 | Timer=12
Normal: N=00 E=01 S=00 W=00 | Timer=11
Normal: N=00 E=01 S=00 W=00 | Timer=10
Normal: N=00 E=01 S=00 W=00 | Timer=9
Normal: N=00 E=01 S=00 W=00 | Timer=8
Normal: N=00 E=01 S=00 W=00 | Timer=7
Normal: N=00 E=01 S=00 W=00 | Timer=6
Normal: N=00 E=01 S=00 W=00 | Timer=5
Normal: N=00 E=01 S=00 W=00 | Timer=4
Normal: N=00 E=01 S=00 W=00 | Timer=3
Normal: N=00 E=01 S=00 W=00 | Timer=2
Normal: N=00 E=01 S=00 W=00 | Timer=1
Normal: N=00 E=01 S=00 W=00 | Timer=0
Normal: N=00 E=10 S=00 W=00 | Timer=20
Normal: N=00 E=10 S=00 W=00 | Timer=19
Normal: N=00 E=10 S=00 W=00 | Timer=18
Normal: N=00 E=10 S=00 W=00 | Timer=17
Normal: N=00 E=10 S=00 W=00 | Timer=16
Normal: N=00 E=10 S=00 W=00 | Timer=15
Normal: N=00 E=10 S=00 W=00 | Timer=14
Normal: N=00 E=10 S=00 W=00 | Timer=13
Normal: N=00 E=10 S=00 W=00 | Timer=12
Normal: N=00 E=10 S=00 W=00 | Timer=11
Normal: N=00 E=10 S=00 W=00 | Timer=10
Normal: N=00 E=10 S=00 W=00 | Timer=9
Normal: N=00 E=10 S=00 W=00 | Timer=8
Normal: N=00 E=10 S=00 W=00 | Timer=7
Normal: N=00 E=10 S=00 W=00 | Timer=6
Normal: N=00 E=10 S=00 W=00 | Timer=5
Normal: N=00 E=10 S=00 W=00 | Timer=4
Normal: N=00 E=10 S=00 W=00 | Timer=3
Normal: N=00 E=10 S=00 W=00 | Timer=2
Normal: N=00 E=10 S=00 W=00 | Timer=1
Normal: N=00 E=10 S=00 W=00 | Timer=0
Normal: N=11 E=11 S=11 W=11 | Timer=5
Normal: N=11 E=11 S=11 W=11 | Timer=4
Normal: N=11 E=11 S=11 W=11 | Timer=3
Normal: N=11 E=11 S=11 W=11 | Timer=2
Normal: N=11 E=11 S=11 W=11 | Timer=1
Normal: N=11 E=11 S=11 W=11 | Timer=0
Normal: N=00 E=00 S=01 W=00 | Timer=85
Normal: N=00 E=00 S=01 W=00 | Timer=84
Normal: N=00 E=00 S=01 W=00 | Timer=83
Normal: N=00 E=00 S=01 W=00 | Timer=82
Normal: N=00 E=00 S=01 W=00 | Timer=81
Normal: N=00 E=00 S=01 W=00 | Timer=80
Normal: N=00 E=00 S=01 W=00 | Timer=79
Normal: N=00 E=00 S=01 W=00 | Timer=78
Normal: N=00 E=00 S=01 W=00 | Timer=77
Normal: N=00 E=00 S=01 W=00 | Timer=76
Normal: N=00 E=00 S=01 W=00 | Timer=75
Normal: N=00 E=00 S=01 W=00 | Timer=74
Normal: N=00 E=00 S=01 W=00 | Timer=73
Normal: N=00 E=00 S=01 W=00 | Timer=72
Normal: N=00 E=00 S=01 W=00 | Timer=71
Normal: N=00 E=00 S=01 W=00 | Timer=70
Normal: N=00 E=00 S=01 W=00 | Timer=69
Normal: N=00 E=00 S=01 W=00 | Timer=68
Normal: N=00 E=00 S=01 W=00 | Timer=67
Normal: N=00 E=00 S=01 W=00 | Timer=66
Normal: N=00 E=00 S=01 W=00 | Timer=65
Normal: N=00 E=00 S=01 W=00 | Timer=64
Normal: N=00 E=00 S=01 W=00 | Timer=63
Normal: N=00 E=00 S=01 W=00 | Timer=62
Normal: N=00 E=00 S=01 W=00 | Timer=61
Normal: N=00 E=00 S=01 W=00 | Timer=60
Normal: N=00 E=00 S=01 W=00 | Timer=59
Normal: N=00 E=00 S=01 W=00 | Timer=58
Normal: N=00 E=00 S=01 W=00 | Timer=57
Normal: N=00 E=00 S=01 W=00 | Timer=56
Normal: N=00 E=00 S=01 W=00 | Timer=55
Normal: N=00 E=00 S=01 W=00 | Timer=54
Normal: N=00 E=00 S=01 W=00 | Timer=53
Normal: N=00 E=00 S=01 W=00 | Timer=52
Normal: N=00 E=00 S=01 W=00 | Timer=51
Normal: N=00 E=00 S=01 W=00 | Timer=50
Normal: N=00 E=00 S=01 W=00 | Timer=49
Normal: N=00 E=00 S=01 W=00 | Timer=48
Normal: N=00 E=00 S=01 W=00 | Timer=47
Normal: N=00 E=00 S=01 W=00 | Timer=46
Normal: N=00 E=00 S=01 W=00 | Timer=45
Normal: N=00 E=00 S=01 W=00 | Timer=44
Normal: N=00 E=00 S=01 W=00 | Timer=43
Normal: N=00 E=00 S=01 W=00 | Timer=42
Normal: N=00 E=00 S=01 W=00 | Timer=41
Normal: N=00 E=00 S=01 W=00 | Timer=40
Normal: N=00 E=00 S=01 W=00 | Timer=39
Normal: N=00 E=00 S=01 W=00 | Timer=38
Normal: N=00 E=00 S=01 W=00 | Timer=37
Normal: N=00 E=00 S=01 W=00 | Timer=36
Normal: N=00 E=00 S=01 W=00 | Timer=35
Normal: N=00 E=00 S=01 W=00 | Timer=34
Normal: N=00 E=00 S=01 W=00 | Timer=33
Normal: N=00 E=00 S=01 W=00 | Timer=32
Normal: N=00 E=00 S=01 W=00 | Timer=31
Normal: N=00 E=00 S=01 W=00 | Timer=30
Normal: N=00 E=00 S=01 W=00 | Timer=29
Normal: N=00 E=00 S=01 W=00 | Timer=28
Normal: N=00 E=00 S=01 W=00 | Timer=27

[TEST 1] Normal cycle verified (observed in waveform)

[TEST 2] Force ALL RED + freeze timer
Normal: N=00 E=00 S=01 W=00 | Timer=26
Normal: N=00 E=00 S=01 W=00 | Timer=25
  ✗ ERROR: Not all RED
EMERG: N=11 E=11 S=11 W=11 | Type=10000
EMERG: N=11 E=11 S=11 W=11 | Type=10000
EMERG: N=11 E=11 S=11 W=11 | Type=10000
EMERG: N=11 E=11 S=11 W=11 | Type=10000
EMERG: N=11 E=11 S=11 W=11 | Type=10000
EMERG: N=11 E=11 S=11 W=11 | Type=10000
EMERG: N=11 E=11 S=11 W=11 | Type=10000
EMERG: N=11 E=11 S=11 W=11 | Type=10000
EMERG: N=11 E=11 S=11 W=11 | Type=10000
  Timer frozen at 25 (no change observed)
EMERG: N=11 E=11 S=11 W=11 | Type=00000
  Soft reset -> resume normal cycle
Normal: N=00 E=00 S=01 W=00 | Timer=25
Normal: N=00 E=00 S=01 W=00 | Timer=24
Normal: N=00 E=00 S=01 W=00 | Timer=23
Normal: N=00 E=00 S=01 W=00 | Timer=22
Normal: N=00 E=00 S=01 W=00 | Timer=21
Normal: N=00 E=00 S=01 W=00 | Timer=20
Normal: N=00 E=00 S=01 W=00 | Timer=19
Normal: N=00 E=00 S=01 W=00 | Timer=18
Normal: N=00 E=00 S=01 W=00 | Timer=17
Normal: N=00 E=00 S=01 W=00 | Timer=16
Normal: N=00 E=00 S=01 W=00 | Timer=15
Normal: N=00 E=00 S=01 W=00 | Timer=14
Normal: N=00 E=00 S=01 W=00 | Timer=13
Normal: N=00 E=00 S=01 W=00 | Timer=12
Normal: N=00 E=00 S=01 W=00 | Timer=11
Normal: N=00 E=00 S=01 W=00 | Timer=10
Normal: N=00 E=00 S=01 W=00 | Timer=9
Normal: N=00 E=00 S=01 W=00 | Timer=8
Normal: N=00 E=00 S=01 W=00 | Timer=7
Normal: N=00 E=00 S=01 W=00 | Timer=6
Normal: N=00 E=00 S=01 W=00 | Timer=5
Normal: N=00 E=00 S=01 W=00 | Timer=4
Normal: N=00 E=00 S=01 W=00 | Timer=3
Normal: N=00 E=00 S=01 W=00 | Timer=2
Normal: N=00 E=00 S=01 W=00 | Timer=1
Normal: N=00 E=00 S=01 W=00 | Timer=0
Normal: N=00 E=00 S=10 W=00 | Timer=20
Normal: N=00 E=00 S=10 W=00 | Timer=19
Normal: N=00 E=00 S=10 W=00 | Timer=18
Normal: N=00 E=00 S=10 W=00 | Timer=17
Normal: N=00 E=00 S=10 W=00 | Timer=16
Normal: N=00 E=00 S=10 W=00 | Timer=15
Normal: N=00 E=00 S=10 W=00 | Timer=14
Normal: N=00 E=00 S=10 W=00 | Timer=13
Normal: N=00 E=00 S=10 W=00 | Timer=12
Normal: N=00 E=00 S=10 W=00 | Timer=11
Normal: N=00 E=00 S=10 W=00 | Timer=10
Normal: N=00 E=00 S=10 W=00 | Timer=9
Normal: N=00 E=00 S=10 W=00 | Timer=8
Normal: N=00 E=00 S=10 W=00 | Timer=7
Normal: N=00 E=00 S=10 W=00 | Timer=6
Normal: N=00 E=00 S=10 W=00 | Timer=5
Normal: N=00 E=00 S=10 W=00 | Timer=4
Normal: N=00 E=00 S=10 W=00 | Timer=3
Normal: N=00 E=00 S=10 W=00 | Timer=2
Normal: N=00 E=00 S=10 W=00 | Timer=1
Normal: N=00 E=00 S=10 W=00 | Timer=0
Normal: N=11 E=11 S=11 W=11 | Timer=5
Normal: N=11 E=11 S=11 W=11 | Timer=4
Normal: N=11 E=11 S=11 W=11 | Timer=3

[TEST 3] Force NORTH GREEN
Normal: N=11 E=11 S=11 W=11 | Timer=2
Normal: N=11 E=11 S=11 W=11 | Timer=1
  ✓ NORTH = GREEN, others RED
EMERG: N=01 E=00 S=00 W=00 | Type=00000
EMERG: N=01 E=00 S=00 W=00 | Type=00000
EMERG: N=01 E=00 S=00 W=00 | Type=00000
EMERG: N=01 E=00 S=00 W=00 | Type=00000
EMERG: N=01 E=00 S=00 W=00 | Type=00000
EMERG: N=01 E=00 S=00 W=00 | Type=00000
EMERG: N=01 E=00 S=00 W=00 | Type=00000
EMERG: N=01 E=00 S=00 W=00 | Type=00000
EMERG: N=01 E=00 S=00 W=00 | Type=00000
EMERG: N=01 E=00 S=00 W=00 | Type=00000
EMERG: N=01 E=00 S=00 W=00 | Type=00000
EMERG: N=01 E=00 S=00 W=00 | Type=00000
EMERG: N=01 E=00 S=00 W=00 | Type=00000
EMERG: N=01 E=00 S=00 W=00 | Type=00000
EMERG: N=01 E=00 S=00 W=00 | Type=00000
EMERG: N=01 E=00 S=00 W=00 | Type=00000
EMERG: N=01 E=00 S=00 W=00 | Type=00000
EMERG: N=01 E=00 S=00 W=00 | Type=00000
EMERG: N=01 E=00 S=00 W=00 | Type=00000
EMERG: N=01 E=00 S=00 W=00 | Type=00000
EMERG: N=01 E=00 S=00 W=00 | Type=00000
EMERG: N=01 E=00 S=00 W=00 | Type=00000
EMERG: N=01 E=00 S=00 W=00 | Type=00000
EMERG: N=01 E=00 S=00 W=00 | Type=00000
EMERG: N=01 E=00 S=00 W=00 | Type=00000
EMERG: N=01 E=00 S=00 W=00 | Type=00000
EMERG: N=01 E=00 S=00 W=00 | Type=00000
EMERG: N=01 E=00 S=00 W=00 | Type=00000
EMERG: N=01 E=00 S=00 W=00 | Type=00000
EMERG: N=01 E=00 S=00 W=00 | Type=00000

[TEST 4] Force EAST GREEN
EMERG: N=01 E=00 S=00 W=00 | Type=00100
EMERG: N=01 E=00 S=00 W=00 | Type=00100
  ✗ ERROR
EMERG: N=01 E=00 S=00 W=00 | Type=00000
EMERG: N=01 E=00 S=00 W=00 | Type=00000
EMERG: N=01 E=00 S=00 W=00 | Type=00000
EMERG: N=01 E=00 S=00 W=00 | Type=00000
EMERG: N=01 E=00 S=00 W=00 | Type=00000
EMERG: N=01 E=00 S=00 W=00 | Type=00000
EMERG: N=01 E=00 S=00 W=00 | Type=00000
EMERG: N=01 E=00 S=00 W=00 | Type=00000
EMERG: N=01 E=00 S=00 W=00 | Type=00000
EMERG: N=01 E=00 S=00 W=00 | Type=00000
EMERG: N=01 E=00 S=00 W=00 | Type=00000
EMERG: N=01 E=00 S=00 W=00 | Type=00000
EMERG: N=01 E=00 S=00 W=00 | Type=00000
EMERG: N=01 E=00 S=00 W=00 | Type=00000
EMERG: N=01 E=00 S=00 W=00 | Type=00000
EMERG: N=01 E=00 S=00 W=00 | Type=00000
EMERG: N=01 E=00 S=00 W=00 | Type=00000
EMERG: N=01 E=00 S=00 W=00 | Type=00000
EMERG: N=01 E=00 S=00 W=00 | Type=00000
EMERG: N=01 E=00 S=00 W=00 | Type=00000
EMERG: N=01 E=00 S=00 W=00 | Type=00000
EMERG: N=01 E=00 S=00 W=00 | Type=00000
EMERG: N=01 E=00 S=00 W=00 | Type=00000
EMERG: N=01 E=00 S=00 W=00 | Type=00000
EMERG: N=01 E=00 S=00 W=00 | Type=00000
EMERG: N=01 E=00 S=00 W=00 | Type=00000
EMERG: N=01 E=00 S=00 W=00 | Type=00000
EMERG: N=01 E=00 S=00 W=00 | Type=00000
EMERG: N=01 E=00 S=00 W=00 | Type=00000
EMERG: N=01 E=00 S=00 W=00 | Type=00000

[TEST 5] Force SOUTH GREEN
EMERG: N=01 E=00 S=00 W=00 | Type=00010
EMERG: N=01 E=00 S=00 W=00 | Type=00010
  ✗ ERROR
EMERG: N=01 E=00 S=00 W=00 | Type=00000
EMERG: N=01 E=00 S=00 W=00 | Type=00000
EMERG: N=01 E=00 S=00 W=00 | Type=00000
EMERG: N=01 E=00 S=00 W=00 | Type=00000
EMERG: N=01 E=00 S=00 W=00 | Type=00000
EMERG: N=01 E=00 S=00 W=00 | Type=00000
EMERG: N=01 E=00 S=00 W=00 | Type=00000
EMERG: N=01 E=00 S=00 W=00 | Type=00000
EMERG: N=01 E=00 S=00 W=00 | Type=00000
EMERG: N=01 E=00 S=00 W=00 | Type=00000
EMERG: N=01 E=00 S=00 W=00 | Type=00000
EMERG: N=01 E=00 S=00 W=00 | Type=00000
EMERG: N=01 E=00 S=00 W=00 | Type=00000
EMERG: N=01 E=00 S=00 W=00 | Type=00000
EMERG: N=01 E=00 S=00 W=00 | Type=00000
EMERG: N=01 E=00 S=00 W=00 | Type=00000
EMERG: N=01 E=00 S=00 W=00 | Type=00000
EMERG: N=01 E=00 S=00 W=00 | Type=00000
EMERG: N=01 E=00 S=00 W=00 | Type=00000
EMERG: N=01 E=00 S=00 W=00 | Type=00000
EMERG: N=01 E=00 S=00 W=00 | Type=00000
EMERG: N=01 E=00 S=00 W=00 | Type=00000
EMERG: N=01 E=00 S=00 W=00 | Type=00000
EMERG: N=01 E=00 S=00 W=00 | Type=00000
EMERG: N=01 E=00 S=00 W=00 | Type=00000
EMERG: N=01 E=00 S=00 W=00 | Type=00000
EMERG: N=01 E=00 S=00 W=00 | Type=00000
EMERG: N=01 E=00 S=00 W=00 | Type=00000
EMERG: N=01 E=00 S=00 W=00 | Type=00000
EMERG: N=01 E=00 S=00 W=00 | Type=00000

[TEST 6] Force WEST GREEN
EMERG: N=01 E=00 S=00 W=00 | Type=00001
EMERG: N=01 E=00 S=00 W=00 | Type=00001
  ✗ ERROR
EMERG: N=01 E=00 S=00 W=00 | Type=00000
EMERG: N=01 E=00 S=00 W=00 | Type=00000
EMERG: N=01 E=00 S=00 W=00 | Type=00000
EMERG: N=01 E=00 S=00 W=00 | Type=00000
EMERG: N=01 E=00 S=00 W=00 | Type=00000
EMERG: N=01 E=00 S=00 W=00 | Type=00000
EMERG: N=01 E=00 S=00 W=00 | Type=00000
EMERG: N=01 E=00 S=00 W=00 | Type=00000
EMERG: N=01 E=00 S=00 W=00 | Type=00000
EMERG: N=01 E=00 S=00 W=00 | Type=00000
EMERG: N=01 E=00 S=00 W=00 | Type=00000
EMERG: N=01 E=00 S=00 W=00 | Type=00000
EMERG: N=01 E=00 S=00 W=00 | Type=00000
EMERG: N=01 E=00 S=00 W=00 | Type=00000
EMERG: N=01 E=00 S=00 W=00 | Type=00000
EMERG: N=01 E=00 S=00 W=00 | Type=00000
EMERG: N=01 E=00 S=00 W=00 | Type=00000
EMERG: N=01 E=00 S=00 W=00 | Type=00000
EMERG: N=01 E=00 S=00 W=00 | Type=00000
EMERG: N=01 E=00 S=00 W=00 | Type=00000
EMERG: N=01 E=00 S=00 W=00 | Type=00000
EMERG: N=01 E=00 S=00 W=00 | Type=00000
EMERG: N=01 E=00 S=00 W=00 | Type=00000
EMERG: N=01 E=00 S=00 W=00 | Type=00000
EMERG: N=01 E=00 S=00 W=00 | Type=00000
EMERG: N=01 E=00 S=00 W=00 | Type=00000
EMERG: N=01 E=00 S=00 W=00 | Type=00000
EMERG: N=01 E=00 S=00 W=00 | Type=00000
EMERG: N=01 E=00 S=00 W=00 | Type=00000
EMERG: N=01 E=00 S=00 W=00 | Type=00000

[TEST 7] Priority: force_red > green
EMERG: N=01 E=00 S=00 W=00 | Type=11000
EMERG: N=01 E=00 S=00 W=00 | Type=11000
  ✗ ERROR: force_red should override green
EMERG: N=01 E=00 S=00 W=00 | Type=00000
EMERG: N=01 E=00 S=00 W=00 | Type=00000
EMERG: N=01 E=00 S=00 W=00 | Type=00000
EMERG: N=01 E=00 S=00 W=00 | Type=00000
EMERG: N=01 E=00 S=00 W=00 | Type=00000
EMERG: N=01 E=00 S=00 W=00 | Type=00000
EMERG: N=01 E=00 S=00 W=00 | Type=00000
EMERG: N=01 E=00 S=00 W=00 | Type=00000
EMERG: N=01 E=00 S=00 W=00 | Type=00000
EMERG: N=01 E=00 S=00 W=00 | Type=00000
EMERG: N=01 E=00 S=00 W=00 | Type=00000
EMERG: N=01 E=00 S=00 W=00 | Type=00000
EMERG: N=01 E=00 S=00 W=00 | Type=00000
EMERG: N=01 E=00 S=00 W=00 | Type=00000
EMERG: N=01 E=00 S=00 W=00 | Type=00000
EMERG: N=01 E=00 S=00 W=00 | Type=00000
EMERG: N=01 E=00 S=00 W=00 | Type=00000
EMERG: N=01 E=00 S=00 W=00 | Type=00000
EMERG: N=01 E=00 S=00 W=00 | Type=00000
EMERG: N=01 E=00 S=00 W=00 | Type=00000
EMERG: N=01 E=00 S=00 W=00 | Type=00000
EMERG: N=01 E=00 S=00 W=00 | Type=00000
EMERG: N=01 E=00 S=00 W=00 | Type=00000
EMERG: N=01 E=00 S=00 W=00 | Type=00000
EMERG: N=01 E=00 S=00 W=00 | Type=00000
EMERG: N=01 E=00 S=00 W=00 | Type=00000
EMERG: N=01 E=00 S=00 W=00 | Type=00000
EMERG: N=01 E=00 S=00 W=00 | Type=00000
EMERG: N=01 E=00 S=00 W=00 | Type=00000
EMERG: N=01 E=00 S=00 W=00 | Type=00000

[TEST 8] Priority among greens (North > East > South > West)
EMERG: N=01 E=00 S=00 W=00 | Type=01100
EMERG: N=01 E=00 S=00 W=00 | Type=01100
  ✓ North gets priority over East
EMERG: N=01 E=00 S=00 W=00 | Type=00000
EMERG: N=01 E=00 S=00 W=00 | Type=00000
EMERG: N=01 E=00 S=00 W=00 | Type=00000
EMERG: N=01 E=00 S=00 W=00 | Type=00000
EMERG: N=01 E=00 S=00 W=00 | Type=00000
EMERG: N=01 E=00 S=00 W=00 | Type=00000
EMERG: N=01 E=00 S=00 W=00 | Type=00000
EMERG: N=01 E=00 S=00 W=00 | Type=00000
EMERG: N=01 E=00 S=00 W=00 | Type=00000
EMERG: N=01 E=00 S=00 W=00 | Type=00000
EMERG: N=01 E=00 S=00 W=00 | Type=00000
EMERG: N=01 E=00 S=00 W=00 | Type=00000
EMERG: N=01 E=00 S=00 W=00 | Type=00000
EMERG: N=01 E=00 S=00 W=00 | Type=00000
EMERG: N=01 E=00 S=00 W=00 | Type=00000
EMERG: N=01 E=00 S=00 W=00 | Type=00000
EMERG: N=01 E=00 S=00 W=00 | Type=00000
EMERG: N=01 E=00 S=00 W=00 | Type=00000
EMERG: N=01 E=00 S=00 W=00 | Type=00000
EMERG: N=01 E=00 S=00 W=00 | Type=00000
EMERG: N=01 E=00 S=00 W=00 | Type=00000
EMERG: N=01 E=00 S=00 W=00 | Type=00000
EMERG: N=01 E=00 S=00 W=00 | Type=00000
EMERG: N=01 E=00 S=00 W=00 | Type=00000
EMERG: N=01 E=00 S=00 W=00 | Type=00000
EMERG: N=01 E=00 S=00 W=00 | Type=00000
EMERG: N=01 E=00 S=00 W=00 | Type=00000
EMERG: N=01 E=00 S=00 W=00 | Type=00000
EMERG: N=01 E=00 S=00 W=00 | Type=00000
EMERG: N=01 E=00 S=00 W=00 | Type=00000

[TEST 9] Hard reset -> back to NORTH_GREEN
EMERG: N=01 E=00 S=00 W=00 | Type=00000
Normal: N=01 E=00 S=00 W=00 | Timer=0
Normal: N=10 E=00 S=00 W=00 | Timer=20
  ✗ ERROR: Hard reset failed
Normal: N=10 E=00 S=00 W=00 | Timer=19
Normal: N=10 E=00 S=00 W=00 | Timer=18
Normal: N=10 E=00 S=00 W=00 | Timer=17
Normal: N=10 E=00 S=00 W=00 | Timer=16
Normal: N=10 E=00 S=00 W=00 | Timer=15
Normal: N=10 E=00 S=00 W=00 | Timer=14
Normal: N=10 E=00 S=00 W=00 | Timer=13
Normal: N=10 E=00 S=00 W=00 | Timer=12
Normal: N=10 E=00 S=00 W=00 | Timer=11
Normal: N=10 E=00 S=00 W=00 | Timer=10
Normal: N=10 E=00 S=00 W=00 | Timer=9
Normal: N=10 E=00 S=00 W=00 | Timer=8
Normal: N=10 E=00 S=00 W=00 | Timer=7
Normal: N=10 E=00 S=00 W=00 | Timer=6
Normal: N=10 E=00 S=00 W=00 | Timer=5
Normal: N=10 E=00 S=00 W=00 | Timer=4
Normal: N=10 E=00 S=00 W=00 | Timer=3
Normal: N=10 E=00 S=00 W=00 | Timer=2
Normal: N=10 E=00 S=00 W=00 | Timer=1
Normal: N=10 E=00 S=00 W=00 | Timer=0
Normal: N=11 E=11 S=11 W=11 | Timer=5
Normal: N=11 E=11 S=11 W=11 | Timer=4
Normal: N=11 E=11 S=11 W=11 | Timer=3
Normal: N=11 E=11 S=11 W=11 | Timer=2
Normal: N=11 E=11 S=11 W=11 | Timer=1
Normal: N=11 E=11 S=11 W=11 | Timer=0
Normal: N=00 E=01 S=00 W=00 | Timer=85
Normal: N=00 E=01 S=00 W=00 | Timer=84
Normal: N=00 E=01 S=00 W=00 | Timer=83
Normal: N=00 E=01 S=00 W=00 | Timer=82
Normal: N=00 E=01 S=00 W=00 | Timer=81
Normal: N=00 E=01 S=00 W=00 | Timer=80
Normal: N=00 E=01 S=00 W=00 | Timer=79
Normal: N=00 E=01 S=00 W=00 | Timer=78
Normal: N=00 E=01 S=00 W=00 | Timer=77
Normal: N=00 E=01 S=00 W=00 | Timer=76
Normal: N=00 E=01 S=00 W=00 | Timer=75
Normal: N=00 E=01 S=00 W=00 | Timer=74
Normal: N=00 E=01 S=00 W=00 | Timer=73
Normal: N=00 E=01 S=00 W=00 | Timer=72
Normal: N=00 E=01 S=00 W=00 | Timer=71
Normal: N=00 E=01 S=00 W=00 | Timer=70
Normal: N=00 E=01 S=00 W=00 | Timer=69
Normal: N=00 E=01 S=00 W=00 | Timer=68
Normal: N=00 E=01 S=00 W=00 | Timer=67
Normal: N=00 E=01 S=00 W=00 | Timer=66
Normal: N=00 E=01 S=00 W=00 | Timer=65
Normal: N=00 E=01 S=00 W=00 | Timer=64
Normal: N=00 E=01 S=00 W=00 | Timer=63
Normal: N=00 E=01 S=00 W=00 | Timer=62
Normal: N=00 E=01 S=00 W=00 | Timer=61
Normal: N=00 E=01 S=00 W=00 | Timer=60
Normal: N=00 E=01 S=00 W=00 | Timer=59
Normal: N=00 E=01 S=00 W=00 | Timer=58
Normal: N=00 E=01 S=00 W=00 | Timer=57
Normal: N=00 E=01 S=00 W=00 | Timer=56
Normal: N=00 E=01 S=00 W=00 | Timer=55
Normal: N=00 E=01 S=00 W=00 | Timer=54
Normal: N=00 E=01 S=00 W=00 | Timer=53
Normal: N=00 E=01 S=00 W=00 | Timer=52
Normal: N=00 E=01 S=00 W=00 | Timer=51
Normal: N=00 E=01 S=00 W=00 | Timer=50
Normal: N=00 E=01 S=00 W=00 | Timer=49
Normal: N=00 E=01 S=00 W=00 | Timer=48
Normal: N=00 E=01 S=00 W=00 | Timer=47
Normal: N=00 E=01 S=00 W=00 | Timer=46
Normal: N=00 E=01 S=00 W=00 | Timer=45
Normal: N=00 E=01 S=00 W=00 | Timer=44
Normal: N=00 E=01 S=00 W=00 | Timer=43
Normal: N=00 E=01 S=00 W=00 | Timer=42
Normal: N=00 E=01 S=00 W=00 | Timer=41
Normal: N=00 E=01 S=00 W=00 | Timer=40
Normal: N=00 E=01 S=00 W=00 | Timer=39
Normal: N=00 E=01 S=00 W=00 | Timer=38
Normal: N=00 E=01 S=00 W=00 | Timer=37
Normal: N=00 E=01 S=00 W=00 | Timer=36
